JSON Vignette
…
# Deconstruct the data file to more easily convert columns 4 through 44 to numeric 
i <- 4:44
jData4b <- apply(jData3[,i], 2, function(x) as.numeric(as.character(x)))

# Put the two sections back together to finalize the data set
hate <- cbind(jData4a,jData4b)

# Convert crime_type to a factor
hate$crime_type <- as.factor(hate$crime_type)

# Convert the dataset to a tibble and view it to ensure it contains the correct attributes
hate <- tbl_df(hate)
hate

## # A tibble: 423 x 44
##    county year  crime_type anti_male anti_female anti_transgender
##    <chr>  <fct> <fct>          <dbl>       <dbl>            <dbl>
##  1 Albany 2016  Crimes Ag         0           0                0
##  2 Albany 2016  Property          0           0                0
##  3 Alleg 2016  Property          0           0                0
##  4 Bronx  2016  Crimes Ag         0           0                4
##  5 Bronx  2016  Property          0           0                0
##  6 Broome 2016  Crimes Ag         0           0                0
##  7 Cayuga 2016  Property          0           0                0
##  8 Chemu 2016  Crimes Ag         0           0                0
##  9 Chemu 2016  Property          0           0                0
## 10 Chena 2016  Crimes Ag         0           0                0
## #  with 413 more rows, and 38 more variables:
## #   anti_gender_identity_expression <dbl>, anti_age <dbl>,
## #   anti_white <dbl>, anti_black <dbl>,
## #   anti_american_indian_alaskan_native <dbl>, anti_asian <dbl>,
## #   anti_native_hawaiian_pacific_islander <dbl>,
## #   anti_multi_racial_groups <dbl>, anti_other_race <dbl>,
## #   anti_jewish <dbl>, anti_catholic <dbl>, anti_protestant <dbl>,
## #   anti_islamic_muslim <dbl>, anti_multi_religious_groups <dbl>,
## #   anti_atheism_agnosticism <dbl>,
…
